<svg width="12" height="7" viewBox="0 0 12 7" fill="none" xmlns="http://www.w3.org/2000/svg">
<path d="M11.28 0.966797L6.9333 5.31346C6.41997 5.8268 5.57997 5.8268 5.06664 5.31346L0.719971 0.966797" stroke="#262626" stroke-miterlimit="10" stroke-linecap="round" stroke-linejoin="round"/>
</svg>
