<svg width="10" height="10" viewBox="0 0 10 10" fill="none" xmlns="http://www.w3.org/2000/svg">
<path d="M5 0C2.245 0 0 2.245 0 5C0 7.755 2.245 10 5 10C7.755 10 10 7.755 10 5C10 2.245 7.755 0 5 0ZM7.39 3.85L4.555 6.685C4.485 6.755 4.39 6.795 4.29 6.795C4.19 6.795 4.095 6.755 4.025 6.685L2.61 5.27C2.465 5.125 2.465 4.885 2.61 4.74C2.755 4.595 2.995 4.595 3.14 4.74L4.29 5.89L6.86 3.32C7.005 3.175 7.245 3.175 7.39 3.32C7.535 3.465 7.535 3.7 7.39 3.85Z" fill="#52C41A"/>
</svg>
