<svg width="11" height="19" viewBox="0 0 11 19" fill="none" xmlns="http://www.w3.org/2000/svg">
<path d="M1.65503 18.5432C1.91748 18.5432 2.14844 18.4382 2.3374 18.2598L10.6519 10.1238C10.8513 9.92432 10.9563 9.68286 10.9563 9.42041C10.9563 9.14746 10.8513 8.89551 10.6519 8.71704L2.3374 0.591551C2.15894 0.402586 1.91748 0.297606 1.65503 0.297606C1.10913 0.297606 0.689209 0.717528 0.689209 1.26343C0.689209 1.51538 0.804688 1.76733 0.972657 1.9458L8.60474 9.42041L0.972657 16.895C0.804688 17.0735 0.689209 17.3149 0.689209 17.5774C0.689209 18.1233 1.10913 18.5432 1.65503 18.5432Z" fill="#8C8C8C"/>
</svg>
